StartFontMetrics 4.1
FontName Nemocon-Script
FullName Nemocon-Script
Notice Copyright [c] 2014 by Carlos Fabian Camargo G./andinistas.net. All rights reserved.
EncodingScheme FontSpecific
FamilyName Nemocon Script
Weight Regular
Version Version 1.000
Characters 217
ItalicAngle -8.2
Ascender 690
Descender -310
UnderlineThickness 34
UnderlinePosition -68
IsFixedPitch false
FontBBox -189 -341 818 877
StartCharMetrics 256
C 0 ; WX 411 ; N .notdef ; B 1 -43 229 647 ;
C 1 ; WX 411 ; N .notdef ; B 1 -43 229 647 ;
C 2 ; WX 411 ; N .notdef ; B 1 -43 229 647 ;
C 3 ; WX 411 ; N .notdef ; B 1 -43 229 647 ;
C 4 ; WX 411 ; N .notdef ; B 1 -43 229 647 ;
C 5 ; WX 411 ; N .notdef ; B 1 -43 229 647 ;
C 6 ; WX 411 ; N .notdef ; B 1 -43 229 647 ;
C 7 ; WX 411 ; N .notdef ; B 1 -43 229 647 ;
C 8 ; WX 411 ; N .notdef ; B 1 -43 229 647 ;
C 9 ; WX 411 ; N .notdef ; B 1 -43 229 647 ;
C 10 ; WX 411 ; N .notdef ; B 1 -43 229 647 ;
C 11 ; WX 411 ; N .notdef ; B 1 -43 229 647 ;
C 12 ; WX 411 ; N .notdef ; B 1 -43 229 647 ;
C 13 ; WX 411 ; N .notdef ; B 1 -43 229 647 ;
C 14 ; WX 411 ; N .notdef ; B 1 -43 229 647 ;
C 15 ; WX 411 ; N .notdef ; B 1 -43 229 647 ;
C 16 ; WX 411 ; N .notdef ; B 1 -43 229 647 ;
C 17 ; WX 411 ; N .notdef ; B 1 -43 229 647 ;
C 18 ; WX 411 ; N .notdef ; B 1 -43 229 647 ;
C 19 ; WX 411 ; N .notdef ; B 1 -43 229 647 ;
C 20 ; WX 411 ; N .notdef ; B 1 -43 229 647 ;
C 21 ; WX 411 ; N .notdef ; B 1 -43 229 647 ;
C 22 ; WX 411 ; N .notdef ; B 1 -43 229 647 ;
C 23 ; WX 411 ; N .notdef ; B 1 -43 229 647 ;
C 24 ; WX 411 ; N .notdef ; B 1 -43 229 647 ;
C 25 ; WX 411 ; N .notdef ; B 1 -43 229 647 ;
C 26 ; WX 411 ; N .notdef ; B 1 -43 229 647 ;
C 27 ; WX 411 ; N .notdef ; B 1 -43 229 647 ;
C 28 ; WX 411 ; N .notdef ; B 1 -43 229 647 ;
C 29 ; WX 411 ; N .notdef ; B 1 -43 229 647 ;
C 30 ; WX 411 ; N .notdef ; B 1 -43 229 647 ;
C 31 ; WX 411 ; N .notdef ; B 1 -43 229 647 ;
C 32 ; WX 411 ; N space ; B 1 -43 229 647 ;
C 33 ; WX 206 ; N exclam ; B 1 -43 229 647 ;
C 34 ; WX 397 ; N quotedbl ; B 41 370 349 575 ;
C 35 ; WX 542 ; N numbersign ; B 26 1 507 487 ;
C 36 ; WX 402 ; N dollar ; B 29 -26 367 637 ;
C 37 ; WX 596 ; N percent ; B 38 -16 538 514 ;
C 38 ; WX 558 ; N ampersand ; B 28 -165 665 593 ;
C 39 ; WX 264 ; N quotesingle ; B 84 363 231 628 ;
C 40 ; WX 350 ; N parenleft ; B 51 -67 357 607 ;
C 41 ; WX 349 ; N parenright ; B 33 -67 309 612 ;
C 42 ; WX 402 ; N asterisk ; B 41 374 367 654 ;
C 43 ; WX 416 ; N plus ; B 13 10 403 437 ;
C 44 ; WX 420 ; N comma ; B 109 -170 310 139 ;
C 45 ; WX 440 ; N hyphen ; B 70 172 356 273 ;
C 46 ; WX 350 ; N period ; B 80 -17 249 141 ;
C 47 ; WX 408 ; N slash ; B 26 -135 374 602 ;
C 48 ; WX 406 ; N zero ; B 29 -10 397 607 ;
C 49 ; WX 301 ; N one ; B 12 0 307 607 ;
C 50 ; WX 380 ; N two ; B 26 0 380 614 ;
C 51 ; WX 363 ; N three ; B 13 -2 366 630 ;
C 52 ; WX 398 ; N four ; B 7 -2 397 633 ;
C 53 ; WX 332 ; N five ; B 7 0 364 608 ;
C 54 ; WX 375 ; N six ; B 22 0 366 614 ;
C 55 ; WX 398 ; N seven ; B 38 -2 394 623 ;
C 56 ; WX 365 ; N eight ; B 14 -10 389 623 ;
C 57 ; WX 355 ; N nine ; B 10 1 372 622 ;
C 58 ; WX 346 ; N colon ; B 87 -17 292 422 ;
C 59 ; WX 341 ; N semicolon ; B 67 -170 296 424 ;
C 60 ; WX 422 ; N less ; B 7 30 389 424 ;
C 61 ; WX 437 ; N equal ; B 37 62 411 331 ;
C 62 ; WX 407 ; N greater ; B 23 16 393 424 ;
C 63 ; WX 435 ; N question ; B 40 -21 425 544 ;
C 64 ; WX 750 ; N at ; B 21 -108 712 539 ;
C 65 ; WX 470 ; N A ; B -31 -84 557 608 ;
C 66 ; WX 511 ; N B ; B -175 -129 579 615 ;
C 67 ; WX 442 ; N C ; B 20 -30 517 640 ;
C 68 ; WX 507 ; N D ; B -128 -33 481 615 ;
C 69 ; WX 406 ; N E ; B -2 -11 482 633 ;
C 70 ; WX 403 ; N F ; B -135 -129 440 633 ;
C 71 ; WX 460 ; N G ; B -6 -278 544 640 ;
C 72 ; WX 535 ; N H ; B -179 -129 610 633 ;
C 73 ; WX 393 ; N I ; B -29 1 464 624 ;
C 74 ; WX 364 ; N J ; B -151 -315 433 610 ;
C 75 ; WX 468 ; N K ; B -179 -129 543 633 ;
C 76 ; WX 337 ; N L ; B -47 -27 423 624 ;
C 77 ; WX 749 ; N M ; B -135 -129 818 675 ;
C 78 ; WX 522 ; N N ; B -135 -129 686 686 ;
C 79 ; WX 477 ; N O ; B 6 -12 543 609 ;
C 80 ; WX 444 ; N P ; B -175 -129 460 615 ;
C 81 ; WX 477 ; N Q ; B -22 -98 538 603 ;
C 82 ; WX 456 ; N R ; B -149 -127 545 615 ;
C 83 ; WX 402 ; N S ; B 24 -67 453 615 ;
C 84 ; WX 342 ; N T ; B -140 -6 485 649 ;
C 85 ; WX 475 ; N U ; B 20 -7 549 653 ;
C 86 ; WX 393 ; N V ; B 19 -11 454 745 ;
C 87 ; WX 672 ; N W ; B 2 -12 682 652 ;
C 88 ; WX 403 ; N X ; B -40 -7 492 673 ;
C 89 ; WX 475 ; N Y ; B 20 -311 549 653 ;
C 90 ; WX 390 ; N Z ; B -16 -11 457 644 ;
C 91 ; WX 389 ; N bracketleft ; B 51 -119 380 582 ;
C 92 ; WX 465 ; N backslash ; B 74 -135 424 602 ;
C 93 ; WX 326 ; N bracketright ; B -40 -119 290 582 ;
C 94 ; WX 366 ; N asciicircum ; B 60 428 366 650 ;
C 95 ; WX 565 ; N underscore ; B 40 0 537 142 ;
C 96 ; WX 295 ; N grave ; B 29 492 262 695 ;
C 97 ; WX 425 ; N a ; B 10 -9 503 466 ;
C 98 ; WX 407 ; N b ; B 17 -7 486 733 ;
C 99 ; WX 371 ; N c ; B 14 -7 450 466 ;
C 100 ; WX 428 ; N d ; B 10 -9 493 753 ;
C 101 ; WX 380 ; N e ; B 4 -7 461 466 ;
C 102 ; WX 331 ; N f ; B -189 -332 403 659 ;
C 103 ; WX 411 ; N g ; B -7 -314 484 466 ;
C 104 ; WX 445 ; N h ; B 9 -7 508 757 ;
C 105 ; WX 242 ; N i ; B 29 -7 322 674 ;
C 106 ; WX 277 ; N j ; B -93 -311 343 685 ;
C 107 ; WX 416 ; N k ; B -12 -9 486 753 ;
C 108 ; WX 305 ; N l ; B 13 -7 373 758 ;
C 109 ; WX 644 ; N m ; B 12 -11 704 468 ;
C 110 ; WX 442 ; N n ; B 0 -7 502 468 ;
C 111 ; WX 402 ; N o ; B -4 -8 477 467 ;
C 112 ; WX 424 ; N p ; B -26 -212 494 531 ;
C 113 ; WX 407 ; N q ; B 2 -341 491 466 ;
C 114 ; WX 362 ; N r ; B 7 -7 442 517 ;
C 115 ; WX 366 ; N s ; B 10 -17 437 461 ;
C 116 ; WX 302 ; N t ; B 2 -8 374 614 ;
C 117 ; WX 440 ; N u ; B 16 -7 517 448 ;
C 118 ; WX 377 ; N v ; B 16 -7 442 467 ;
C 119 ; WX 562 ; N w ; B 8 -9 617 477 ;
C 120 ; WX 401 ; N x ; B -21 -10 478 471 ;
C 121 ; WX 432 ; N y ; B 16 -311 517 448 ;
C 122 ; WX 386 ; N z ; B 2 -311 464 508 ;
C 123 ; WX 389 ; N braceleft ; B 13 -120 384 584 ;
C 124 ; WX 356 ; N bar ; B 81 -134 242 609 ;
C 125 ; WX 345 ; N braceright ; B -2 -120 337 584 ;
C 126 ; WX 467 ; N asciitilde ; B 37 182 438 330 ;
C 127 ; WX 411 ; N .notdef ; B 1 -43 229 647 ;
C 128 ; WX 424 ; N Euro ; B -7 -6 411 602 ;
C 129 ; WX 411 ; N .notdef ; B 1 -43 229 647 ;
C 130 ; WX 420 ; N quotesinglbase ; B 109 -170 310 139 ;
C 131 ; WX 372 ; N florin ; B -129 -330 403 637 ;
C 132 ; WX 531 ; N quotedblbase ; B 50 -170 477 139 ;
C 133 ; WX 859 ; N ellipsis ; B 101 -14 774 141 ;
C 134 ; WX 360 ; N dagger ; B 2 -138 344 617 ;
C 135 ; WX 360 ; N daggerdbl ; B 11 -138 343 617 ;
C 136 ; WX 335 ; N circumflex ; B 78 477 379 646 ;
C 137 ; WX 834 ; N perthousand ; B 42 -16 790 514 ;
C 138 ; WX 402 ; N Scaron ; B 24 -67 453 786 ;
C 139 ; WX 384 ; N guilsinglleft ; B 20 -11 370 370 ;
C 140 ; WX 633 ; N OE ; B 6 -12 702 633 ;
C 141 ; WX 411 ; N .notdef ; B 1 -43 229 647 ;
C 142 ; WX 390 ; N Zcaron ; B -16 -11 457 807 ;
C 143 ; WX 411 ; N .notdef ; B 1 -43 229 647 ;
C 144 ; WX 531 ; N quotedblbase ; B 50 -170 477 139 ;
C 145 ; WX 238 ; N quoteleft ; B 31 361 223 588 ;
C 146 ; WX 255 ; N quoteright ; B 31 361 223 588 ;
C 147 ; WX 443 ; N quotedblleft ; B 31 361 423 588 ;
C 148 ; WX 460 ; N quotedblright ; B 51 361 434 588 ;
C 149 ; WX 413 ; N bullet ; B 103 113 314 364 ;
C 150 ; WX 522 ; N endash ; B 47 182 482 289 ;
C 151 ; WX 646 ; N emdash ; B 47 180 610 289 ;
C 152 ; WX 495 ; N tilde ; B 101 495 440 609 ;
C 153 ; WX 814 ; N trademark ; B 28 302 775 608 ;
C 154 ; WX 366 ; N scaron ; B 10 -17 437 649 ;
C 155 ; WX 397 ; N guilsinglright ; B 11 -12 374 344 ;
C 156 ; WX 597 ; N oe ; B 9 -8 676 467 ;
C 157 ; WX 411 ; N .notdef ; B 1 -43 229 647 ;
C 158 ; WX 386 ; N zcaron ; B 2 -311 464 638 ;
C 159 ; WX 475 ; N Ydieresis ; B 20 -311 549 808 ;
C 160 ; WX 411 ; N .notdef ; B 1 -43 229 647 ;
C 161 ; WX 295 ; N exclamdown ; B 29 -89 214 583 ;
C 162 ; WX 357 ; N cent ; B 42 -42 339 619 ;
C 163 ; WX 443 ; N sterling ; B 1 -1 427 593 ;
C 164 ; WX 455 ; N currency ; B 17 20 446 467 ;
C 165 ; WX 384 ; N yen ; B 31 -14 421 603 ;
C 166 ; WX 356 ; N brokenbar ; B 73 -134 244 609 ;
C 167 ; WX 493 ; N section ; B 37 -203 498 571 ;
C 168 ; WX 364 ; N dieresis ; B 31 472 323 599 ;
C 169 ; WX 592 ; N copyright ; B 42 -10 549 577 ;
C 170 ; WX 361 ; N ordfeminine ; B 42 289 325 615 ;
C 171 ; WX 760 ; N guillemotleft ; B 73 11 710 393 ;
C 172 ; WX 481 ; N logicalnot ; B 50 46 437 285 ;
C 173 ; WX 397 ; N guilsinglright ; B 11 -12 374 344 ;
C 174 ; WX 568 ; N registered ; B 33 24 553 615 ;
C 175 ; WX 332 ; N overscore ; B 34 574 313 672 ;
C 176 ; WX 331 ; N degree ; B 51 361 270 553 ;
C 177 ; WX 496 ; N plusminus ; B 38 -37 452 484 ;
C 178 ; WX 300 ; N twosuperior ; B 31 299 293 623 ;
C 179 ; WX 329 ; N threesuperior ; B 42 287 295 623 ;
C 180 ; WX 291 ; N acute ; B 29 492 262 695 ;
C 181 ; WX 440 ; N mu ; B -54 -180 517 463 ;
C 182 ; WX 821 ; N paragraph ; B 50 -180 795 633 ;
C 183 ; WX 492 ; N middot ; B 141 144 336 343 ;
C 184 ; WX 241 ; N cedilla ; B -12 -213 213 28 ;
C 185 ; WX 301 ; N onesuperior ; B 48 302 272 622 ;
C 186 ; WX 357 ; N ordmasculine ; B 19 292 342 610 ;
C 187 ; WX 760 ; N guillemotright ; B 71 -14 687 380 ;
C 188 ; WX 739 ; N onequarter ; B 54 -2 729 618 ;
C 189 ; WX 753 ; N onehalf ; B 46 -14 715 614 ;
C 190 ; WX 739 ; N threequarters ; B 46 -2 716 612 ;
C 191 ; WX 472 ; N questiondown ; B 47 -16 423 557 ;
C 192 ; WX 470 ; N Agrave ; B -31 -84 557 874 ;
C 193 ; WX 470 ; N Aacute ; B -31 -84 557 866 ;
C 194 ; WX 470 ; N Acircumflex ; B -31 -84 557 806 ;
C 195 ; WX 470 ; N Atilde ; B -31 -84 557 764 ;
C 196 ; WX 470 ; N Adieresis ; B -31 -84 557 791 ;
C 197 ; WX 470 ; N Aring ; B -31 -84 557 844 ;
C 198 ; WX 652 ; N AE ; B -31 -83 717 635 ;
C 199 ; WX 442 ; N Ccedilla ; B 20 -209 517 640 ;
C 200 ; WX 406 ; N Egrave ; B -2 -11 482 865 ;
C 201 ; WX 406 ; N Eacute ; B -2 -11 482 850 ;
C 202 ; WX 406 ; N Ecircumflex ; B -2 -11 482 822 ;
C 203 ; WX 406 ; N Edieresis ; B -2 -11 482 781 ;
C 204 ; WX 393 ; N Igrave ; B -29 1 464 865 ;
C 205 ; WX 393 ; N Iacute ; B -29 1 464 859 ;
C 206 ; WX 393 ; N Icircumflex ; B -29 1 464 814 ;
C 207 ; WX 393 ; N Idieresis ; B -29 1 464 775 ;
C 208 ; WX 477 ; N Eth ; B 11 -40 470 639 ;
C 209 ; WX 522 ; N Ntilde ; B -135 -129 686 750 ;
C 210 ; WX 477 ; N Ograve ; B 6 -12 543 839 ;
C 211 ; WX 477 ; N Oacute ; B 6 -12 543 838 ;
C 212 ; WX 477 ; N Ocircumflex ; B 6 -12 543 808 ;
C 213 ; WX 477 ; N Otilde ; B 6 -12 543 743 ;
C 214 ; WX 477 ; N Odieresis ; B 6 -12 543 775 ;
C 215 ; WX 457 ; N multiply ; B 54 4 415 372 ;
C 216 ; WX 477 ; N Oslash ; B 16 -104 445 679 ;
C 217 ; WX 475 ; N Ugrave ; B 20 -7 549 874 ;
C 218 ; WX 475 ; N Uacute ; B 20 -7 549 877 ;
C 219 ; WX 475 ; N Ucircumflex ; B 20 -7 549 846 ;
C 220 ; WX 475 ; N Udieresis ; B 20 -7 549 801 ;
C 221 ; WX 475 ; N Yacute ; B 20 -311 549 870 ;
C 222 ; WX 460 ; N Thorn ; B -2 -170 437 636 ;
C 223 ; WX 536 ; N germandbls ; B 24 -124 517 628 ;
C 224 ; WX 425 ; N agrave ; B 10 -9 503 695 ;
C 225 ; WX 425 ; N aacute ; B 10 -9 503 711 ;
C 226 ; WX 425 ; N acircumflex ; B 10 -9 503 648 ;
C 227 ; WX 425 ; N atilde ; B 10 -9 503 605 ;
C 228 ; WX 425 ; N adieresis ; B 10 -9 503 615 ;
C 229 ; WX 425 ; N aring ; B 10 -9 503 721 ;
C 230 ; WX 587 ; N ae ; B 10 -9 662 466 ;
C 231 ; WX 371 ; N ccedilla ; B 9 -197 450 466 ;
C 232 ; WX 380 ; N egrave ; B 4 -7 461 697 ;
C 233 ; WX 380 ; N eacute ; B 4 -7 461 709 ;
C 234 ; WX 380 ; N ecircumflex ; B 4 -7 461 655 ;
C 235 ; WX 380 ; N edieresis ; B 4 -7 461 619 ;
C 236 ; WX 242 ; N igrave ; B 0 -7 322 678 ;
C 237 ; WX 242 ; N iacute ; B 29 -7 322 679 ;
C 238 ; WX 242 ; N icircumflex ; B 9 -7 322 629 ;
C 239 ; WX 242 ; N idieresis ; B 7 -7 322 603 ;
C 240 ; WX 478 ; N eth ; B 34 -7 491 624 ;
C 241 ; WX 442 ; N ntilde ; B 0 -7 502 610 ;
C 242 ; WX 402 ; N ograve ; B -4 -8 477 695 ;
C 243 ; WX 402 ; N oacute ; B -4 -8 477 705 ;
C 244 ; WX 402 ; N ocircumflex ; B -4 -8 477 656 ;
C 245 ; WX 402 ; N otilde ; B -4 -8 477 607 ;
C 246 ; WX 402 ; N odieresis ; B -4 -8 477 627 ;
C 247 ; WX 473 ; N divide ; B 44 -27 442 403 ;
C 248 ; WX 373 ; N oslash ; B 27 -98 374 573 ;
C 249 ; WX 440 ; N ugrave ; B 16 -7 517 681 ;
C 250 ; WX 440 ; N uacute ; B 16 -7 517 662 ;
C 251 ; WX 440 ; N ucircumflex ; B 16 -7 517 646 ;
C 252 ; WX 440 ; N udieresis ; B 16 -7 517 615 ;
C 253 ; WX 432 ; N yacute ; B 16 -311 517 682 ;
C 254 ; WX 454 ; N thorn ; B -2 -170 438 636 ;
C 255 ; WX 432 ; N ydieresis ; B 16 -311 517 609 ;
EndCharMetrics
EndFontMetrics
